{
  "project_info": {
    "project_number": "562997821388",
    "firebase_url": "https://isaacgo-97318.firebaseio.com",
    "project_id": "isaacgo-97318",
    "storage_bucket": "isaacgo-97318.appspot.com"
  },
  "client": [
    {
      "client_info": {
        "mobilesdk_app_id": "1:562997821388:android:f7698ff42eceafd5",
        "android_client_info": {
          "package_name": "com.sergi.isaacgo"
        }
      },
      "oauth_client": [
        {
          "client_id": "562997821388-fe7i3op6mhqaba1c7t7o08casbikmbt8.apps.googleusercontent.com",
          "client_type": 1,
          "android_info": {
            "package_name": "com.sergi.isaacgo",
            "certificate_hash": "119469274c9a348f4cd0d983996b8610898af9bd"
          }
        },
        {
          "client_id": "562997821388-2328sh7tksulk081nvf6lkoaguh032sj.apps.googleusercontent.com",
          "client_type": 3
        }
      ],
      "api_key": [
        {
          "current_key": "AIzaSyB0u8R9Q7RtaJZY-1ixPiYTSU3eke9nb8Y"
        }
      ],
      "services": {
        "analytics_service": {
          "status": 1
        },
        "appinvite_service": {
          "status": 2,
          "other_platform_oauth_client": [
            {
              "client_id": "562997821388-2328sh7tksulk081nvf6lkoaguh032sj.apps.googleusercontent.com",
              "client_type": 3
            }
          ]
        },
        "ads_service": {
          "status": 2
        }
      }
    }
  ],
  "configuration_version": "1"
}